{
    "2008": {
        "BB McCullum": 1,
        "MEK Hussey": 1,
        "MF Maharoof": 1,
        "MV Boucher": 1,
        "DJ Hussey": 1,
        "SR Watson": 4,
        "V Sehwag": 2,
        "ML Hayden": 1,
        "YK Pathan": 4,
        "KC Sangakkara": 1,
        "JDP Oram": 1,
        "AC Gilchrist": 2,
        "SM Katich": 1,
        "MS Dhoni": 2,
        "ST Jayasuriya": 2,
        "GD McGrath": 1,
        "SE Marsh": 5,
        "SA Asnodkar": 1,
        "R Vinay Kumar": 1,
        "IK Pathan": 1,
        "SM Pollock": 2,
        "Sohail Tanvir": 2,
        "S Sreesanth": 1,
        "A Nehra": 1,
        "SC Ganguly": 2,
        "CRD Fernando": 1,
        "L Balaji": 1,
        "Shoaib Akhtar": 1,
        "A Mishra": 1,
        "DPMD Jayawardene": 1,
        "GC Smith": 1,
        "DJ Bravo": 1,
        "M Ntini": 2,
        "SP Goswami": 1,
        "A Kumble": 1,
        "KD Karthik": 1,
        "JA Morkel": 1,
        "P Kumar": 1,
        "Umar Gul": 1,
        "SK Raina": 1
    },
    "2009": {
        "SR Tendulkar": 2,
        "R Dravid": 1,
        "DL Vettori": 1,
        "RP Singh": 1,
        "M Muralitharan": 2,
        "CH Gayle": 1,
        "AC Gilchrist": 2,
        "AB de Villiers": 2,
        "YK Pathan": 3,
        "RS Bopara": 1,
        "PP Ojha": 1,
        "TM Dilshan": 1,
        "KC Sangakkara": 2,
        "HH Gibbs": 1,
        "MV Boucher": 1,
        "DP Nannes": 1,
        "SK Raina": 1,
        "JP Duminy": 2,
        "Yuvraj Singh": 2,
        "SB Jakati": 1,
        "DPMD Jayawardene": 2,
        "JH Kallis": 2,
        "MS Dhoni": 1,
        "GC Smith": 1,
        "G Gambhir": 1,
        "RG Sharma": 2,
        "A Singh": 1,
        "ML Hayden": 2,
        "A Nehra": 1,
        "S Badrinath": 1,
        "A Mishra": 1,
        "DR Smith": 1,
        "LRPL Taylor": 2,
        "Harbhajan Singh": 1,
        "R Bhatia": 1,
        "SK Warne": 1,
        "B Lee": 1,
        "BJ Hodge": 1,
        "LR Shukla": 1,
        "V Sehwag": 1,
        "MK Pandey": 2,
        "A Kumble": 1
    },
    "2010": {
        "AD Mathews": 1,
        "YK Pathan": 2,
        "G Gambhir": 2,
        "MK Tiwary": 2,
        "WPUJC Vaas": 1,
        "V Sehwag": 1,
        "JH Kallis": 3,
        "MS Dhoni": 2,
        "SR Tendulkar": 4,
        "ML Hayden": 1,
        "A Symonds": 3,
        "AA Jhunjhunwala": 1,
        "J Theron": 1,
        "RV Uthappa": 1,
        "AC Voges": 1,
        "KM Jadhav": 1,
        "NV Ojha": 1,
        "Harbhajan Singh": 1,
        "DA Warner": 1,
        "SL Malinga": 1,
        "M Vijay": 2,
        "KD Karthik": 1,
        "SC Ganguly": 2,
        "KP Pietersen": 2,
        "AT Rayudu": 1,
        "DPMD Jayawardene": 1,
        "PD Collingwood": 1,
        "SK Warne": 1,
        "SK Raina": 2,
        "MJ Lumb": 1,
        "TL Suman": 1,
        "KC Sangakkara": 1,
        "RJ Harris": 1,
        "R Vinay Kumar": 1,
        "PP Chawla": 1,
        "Harmeet Singh": 1,
        "KA Pollard": 2,
        "R Ashwin": 1,
        "RG Sharma": 1,
        "R McLaren": 1,
        "JD Unadkat": 1,
        "M Kartik": 1,
        "DE Bollinger": 1,
        "A Kumble": 1
    },
    "2011": {
        "S Anirudha": 1,
        "SK Trivedi": 1,
        "AB de Villiers": 1,
        "SL Malinga": 2,
        "SB Wagh": 1,
        "JH Kallis": 1,
        "SK Warne": 2,
        "SR Tendulkar": 1,
        "PC Valthaty": 2,
        "MD Mishra": 1,
        "DW Steyn": 1,
        "G Gambhir": 1,
        "BB McCullum": 2,
        "MEK Hussey": 3,
        "Yuvraj Singh": 1,
        "L Balaji": 1,
        "S Sohal": 1,
        "MM Patel": 2,
        "DPMD Jayawardene": 1,
        "SE Marsh": 1,
        "Harbhajan Singh": 1,
        "CH Gayle": 6,
        "DA Warner": 1,
        "V Kohli": 2,
        "DE Bollinger": 1,
        "I Sharma": 1,
        "MK Tiwary": 1,
        "J Botha": 1,
        "V Sehwag": 2,
        "Iqbal Abdulla": 2,
        "LRPL Taylor": 1,
        "JA Morkel": 1,
        "KA Pollard": 1,
        "P Parameswaran": 1,
        "YK Pathan": 2,
        "R Sharma": 2,
        "BJ Hodge": 2,
        "AT Rayudu": 1,
        "M Vijay": 2,
        "MR Marsh": 1,
        "BA Bhatt": 1,
        "S Aravind": 1,
        "MS Dhoni": 1,
        "KD Karthik": 1,
        "A Mishra": 2,
        "PP Chawla": 1,
        "AC Gilchrist": 1,
        "WP Saha": 1,
        "SR Watson": 1,
        "S Dhawan": 1,
        "": 1,
        "JEC Franklin": 1,
        "SK Raina": 1
    },
    "2012": {
        "RE Levi": 1,
        "IK Pathan": 1,
        "SPD Smith": 1,
        "AM Rahane": 2,
        "AB de Villiers": 3,
        "RA Jadeja": 1,
        "BJ Hodge": 2,
        "MN Samuels": 1,
        "RG Sharma": 2,
        "L Balaji": 1,
        "M Morkel": 1,
        "KA Pollard": 1,
        "F du Plessis": 2,
        "AD Mascarenhas": 1,
        "Shakib Al Hasan": 2,
        "KP Pietersen": 1,
        "JD Ryder": 1,
        "SP Narine": 3,
        "S Nadeem": 1,
        "CH Gayle": 5,
        "G Gambhir": 3,
        "DA Warner": 1,
        "KMDN Kulasekara": 1,
        "SC Ganguly": 1,
        "SE Marsh": 1,
        "B Lee": 1,
        "V Sehwag": 3,
        "AT Rayudu": 2,
        "CL White": 1,
        "Mandeep Singh": 2,
        "DW Steyn": 3,
        "KC Sangakkara": 1,
        "P Negi": 1,
        "Azhar Mahmood": 1,
        "SL Malinga": 1,
        "SK Raina": 1,
        "SR Watson": 2,
        "DR Smith": 2,
        "JH Kallis": 1,
        "BW Hilfenhaus": 2,
        "A Chandila": 1,
        "DJ Hussey": 1,
        "MEK Hussey": 1,
        "UT Yadav": 2,
        "AC Gilchrist": 1,
        "YK Pathan": 1,
        "MS Dhoni": 1,
        "M Vijay": 1,
        "MS Bisla": 1
    },
    "2013": {
        "SP Narine": 1,
        "CH Gayle": 3,
        "A Mishra": 4,
        "R Dravid": 1,
        "KA Pollard": 3,
        "M Vohra": 1,
        "GH Vihari": 2,
        "SK Trivedi": 1,
        "KD Karthik": 1,
        "MEK Hussey": 5,
        "AJ Finch": 1,
        "RG Sharma": 2,
        "RA Jadeja": 2,
        "G Gambhir": 2,
        "JP Faulkner": 2,
        "SPD Smith": 1,
        "MS Gony": 1,
        "V Kohli": 3,
        "AM Rahane": 3,
        "R Vinay Kumar": 1,
        "V Sehwag": 1,
        "DA Miller": 3,
        "DR Smith": 2,
        "MS Dhoni": 3,
        "JH Kallis": 2,
        "DA Warner": 2,
        "SV Samson": 1,
        "I Sharma": 1,
        "SK Raina": 2,
        "AB de Villiers": 1,
        "YK Pathan": 1,
        "DJG Sammy": 1,
        "AC Gilchrist": 1,
        "MG Johnson": 2,
        "SR Tendulkar": 1,
        "KK Cooper": 1,
        "JD Unadkat": 1,
        "PA Patel": 2,
        "SR Watson": 1,
        "Harmeet Singh": 1,
        "MK Pandey": 1,
        "AP Tare": 1,
        "Azhar Mahmood": 1,
        "LJ Wright": 1,
        "BJ Hodge": 1,
        "Harbhajan Singh": 1
    },
    "2014": {
        "JH Kallis": 1,
        "YS Chahal": 1,
        "GJ Maxwell": 4,
        "AM Rahane": 2,
        "PA Patel": 1,
        "JP Duminy": 1,
        "SK Raina": 2,
        "RA Jadeja": 3,
        "CA Lynn": 1,
        "AJ Finch": 1,
        "MM Sharma": 1,
        "PV Tambe": 2,
        "Sandeep Sharma": 3,
        "M Vijay": 1,
        "DR Smith": 3,
        "JP Faulkner": 2,
        "B Kumar": 2,
        "CJ Anderson": 2,
        "KK Nair": 1,
        "AB de Villiers": 2,
        "RG Sharma": 1,
        "G Gambhir": 2,
        "DW Steyn": 1,
        "AT Rayudu": 1,
        "Yuvraj Singh": 1,
        "WP Saha": 1,
        "RV Uthappa": 3,
        "UT Yadav": 2,
        "MEK Hussey": 2,
        "AR Patel": 1,
        "DA Warner": 2,
        "LMP Simmons": 1,
        "SE Marsh": 1,
        "MS Dhoni": 1,
        "YK Pathan": 1,
        "M Vohra": 1,
        "V Sehwag": 1,
        "MK Pandey": 1
    },
    "2015": {
        "M Morkel": 1,
        "A Nehra": 3,
        "JP Faulkner": 1,
        "BB McCullum": 2,
        "CH Gayle": 2,
        "DJ Hooda": 1,
        "GJ Bailey": 1,
        "DA Warner": 4,
        "SPD Smith": 1,
        "AD Russell": 3,
        "MA Agarwal": 1,
        "AM Rahane": 3,
        "JP Duminy": 1,
        "Harbhajan Singh": 2,
        "UT Yadav": 2,
        "SE Marsh": 1,
        "SK Raina": 2,
        "SS Iyer": 1,
        "MA Starc": 1,
        "SL Malinga": 1,
        "VR Aaron": 1,
        "TA Boult": 1,
        "PP Chawla": 1,
        "": 2,
        "DJ Bravo": 1,
        "NM Coulter-Nile": 1,
        "AT Rayudu": 1,
        "Mandeep Singh": 1,
        "LMP Simmons": 1,
        "EJG Morgan": 1,
        "HH Pandya": 2,
        "MC Henriques": 1,
        "AB de Villiers": 2,
        "RA Jadeja": 1,
        "Z Khan": 1,
        "AR Patel": 1,
        "V Kohli": 1,
        "P Negi": 1,
        "SR Watson": 1,
        "MJ McClenaghan": 1,
        "KA Pollard": 1,
        "RG Sharma": 1
    },
    "2016": {
        "AM Rahane": 2,
        "AD Russell": 3,
        "AJ Finch": 3,
        "AB de Villiers": 4,
        "RG Sharma": 4,
        "A Mishra": 1,
        "G Gambhir": 1,
        "M Vohra": 1,
        "Q de Kock": 1,
        "DA Warner": 3,
        "RV Uthappa": 1,
        "B Kumar": 2,
        "SV Samson": 1,
        "Mustafizur Rahman": 1,
        "V Kohli": 5,
        "SA Yadav": 1,
        "PA Patel": 1,
        "AB Dinda": 2,
        "CH Morris": 2,
        "DR Smith": 2,
        "CR Brathwaite": 1,
        "AR Patel": 1,
        "RR Pant": 1,
        "MP Stoinis": 2,
        "A Nehra": 1,
        "P Kumar": 1,
        "SR Watson": 1,
        "A Zampa": 1,
        "KH Pandya": 2,
        "YK Pathan": 2,
        "HM Amla": 1,
        "KK Nair": 1,
        "MS Dhoni": 1,
        "SK Raina": 1,
        "MC Henriques": 1,
        "BCJ Cutting": 1
    },
    "2017": {
        "Yuvraj Singh": 1,
        "SPD Smith": 1,
        "CA Lynn": 1,
        "GJ Maxwell": 1,
        "KM Jadhav": 1,
        "Rashid Khan": 2,
        "N Rana": 2,
        "AR Patel": 1,
        "SV Samson": 1,
        "JJ Bumrah": 1,
        "SP Narine": 2,
        "KA Pollard": 1,
        "AJ Tye": 2,
        "RV Uthappa": 2,
        "CJ Anderson": 1,
        "BA Stokes": 3,
        "NM Coulter-Nile": 3,
        "B Kumar": 1,
        "CH Gayle": 1,
        "KS Williamson": 1,
        "JC Buttler": 1,
        "SK Raina": 1,
        "MJ McClenaghan": 1,
        "MS Dhoni": 1,
        "HM Amla": 1,
        "G Gambhir": 1,
        "LH Ferguson": 1,
        "KH Pandya": 2,
        "Sandeep Sharma": 2,
        "DA Warner": 1,
        "RG Sharma": 1,
        "Mohammed Shami": 1,
        "RA Tripathi": 1,
        "RR Pant": 1,
        "JD Unadkat": 2,
        "LMP Simmons": 1,
        "DR Smith": 1,
        "S Dhawan": 1,
        "MM Sharma": 1,
        "SS Iyer": 1,
        "WP Saha": 1,
        "KK Nair": 1,
        "Mohammed Siraj": 1,
        "AT Rayudu": 1,
        "HV Patel": 1,
        "Washington Sundar": 1,
        "KV Sharma": 1
    }
}